{
    "entity_synonyms": null, 
    "pipeline": [
        "rasa_nlu.utils.spacy_utils.SpacyNLP", 
        "rasa_nlu.tokenizers.spacy_tokenizer.SpacyTokenizer", 
        "rasa_nlu.featurizers.spacy_featurizer.SpacyFeaturizer", 
        "rasa_nlu.featurizers.regex_featurizer.RegexFeaturizer", 
        "rasa_nlu.extractors.crf_entity_extractor.CRFEntityExtractor", 
        "rasa_nlu.extractors.entity_synonyms.EntitySynonymMapper", 
        "rasa_nlu.classifiers.sklearn_intent_classifier.SklearnIntentClassifier"
    ], 
    "spacy_model_name": "en", 
    "language": "en", 
    "intent_classifier_sklearn": "intent_classifier.pkl", 
    "trained_at": "20180416-143119", 
    "training_data": "training_data.json", 
    "entity_extractor_crf": null, 
    "rasa_nlu_version": "0.11.4", 
    "regex_featurizer": null
}